JDRF Sensitivity / Benchmark • JDRFCAV
…
B. Run:

B.1: naive, manual loop (via appply-like / map), broken to pre-processed/baked -> s.control (cv.glmnet min) -> ML

#############################################################################
# bmr_tib_naive<-bmr_tib %>% mutate(whole_run = lrn_i %>% imap(~whole_run_function(task = task_j, lrn = .x, lambda_opt = 'pushed_lambda', .y)))
# save(bmr_tib_naive, file = 'data/bmr_tib_naive.rdata')
#############################################################################
# load(file = 'Z:/R_rhino/JDRFCAV/data/bmr_tib_naive.rdata') # 
bmr_tib_naive

## # A tibble: 176 x 6
##    hclust_cutree_h Univ_top_n args_vec_i lrd_ID_i lrn_i           whole_run
##              <dbl>      <dbl> <list>     <chr>    <list>          <list>   
##  1            0            10 <list [7]> lrn_1    <S3: PreprocWr~ <list [7~
##  2            0.05         10 <list [7]> lrn_2    <S3: PreprocWr~ <list [7~
##  3            0.1          10 <list [7]> lrn_3    <S3: PreprocWr~ <list [7~
##  4            0.15         10 <list [7]> lrn_4    <S3: PreprocWr~ <list [7~
##  5            0.2          10 <list [7]> lrn_5    <S3: PreprocWr~ <list [7~
##  6            0.25         10 <list [7]> lrn_6    <S3: PreprocWr~ <list [7~
##  7            0.3          10 <list [7]> lrn_7    <S3: PreprocWr~ <list [7~
##  8            0.35         10 <list [7]> lrn_8    <S3: PreprocWr~ <list [7~
##  9            0.4          10 <list [7]> lrn_9    <S3: PreprocWr~ <list [7~
## 10            0.45         10 <list [7]> lrn_10   <S3: PreprocWr~ <list [7~
## # ... with 166 more rows
…
